Project1
…
$categorical_summary$SCHL
# A tibble: 48 × 5
   variable group level                              weighted_count percent
   <chr>    <dbl> <fct>                                       <dbl>   <dbl>
 1 SCHL      2019 N/A (less than 3 years old)              43202305   1.68 
 2 SCHL      2019 Grade 7                                  21050539   0.818
 3 SCHL      2019 Grade 8                                  22565163   0.877
 4 SCHL      2019 Grade 9                                  20493072   0.797
 5 SCHL      2019 Grade 10                                 26545150   1.03 
 6 SCHL      2019 Grade 11                                 24919086   0.969
 7 SCHL      2019 12th grade - no diploma                  13245619   0.515
 8 SCHL      2019 Regular high school diploma             199532788   7.76 
 9 SCHL      2019 GED or alternative credential            22344197   0.869
10 SCHL      2019 Some college, but less than 1 year       44949452   1.75 
# ℹ 38 more rows
…
